%!PS-Adobe-3.0 EPSF-3.0
%%Title: c_1_b_pre.eps
%%Creator: matplotlib version 1.5.1, http://matplotlib.org/
%%CreationDate: Sat Mar 11 12:11:42 2017
%%Orientation: portrait
%%BoundingBox: 18 180 594 612
%%EndComments
%%BeginProlog
/mpldict 8 dict def
mpldict begin
/m { moveto } bind def
/l { lineto } bind def
/r { rlineto } bind def
/c { curveto } bind def
/cl { closepath } bind def
/box {
m
1 index 0 r
0 exch r
neg 0 r
cl
} bind def
/clipbox {
box
clip
newpath
} bind def
%!PS-Adobe-3.0 Resource-Font
%%Title: Bitstream Vera Sans
%%Copyright: Copyright (c) 2003 by Bitstream, Inc. All Rights Reserved.
%%Creator: Converted from TrueType to type 3 by PPR
25 dict begin
/_d{bind def}bind def
/_m{moveto}_d
/_l{lineto}_d
/_cl{closepath eofill}_d
/_c{curveto}_d
/_sc{7 -1 roll{setcachedevice}{pop pop pop pop pop pop}ifelse}_d
/_e{exec}_d
/FontName /BitstreamVeraSans-Roman def
/PaintType 0 def
/FontMatrix[.001 0 0 .001 0 0]def
/FontBBox[-183 -236 1287 928]def
/FontType 3 def
/Encoding [ /space /parenleft /parenright /period /zero /one /two /three /four /five /six /seven /C /P /T /a /c /e /i /l /m /n /o /p /r /s /t /u /v /w ] def
/FontInfo 10 dict dup begin
/FamilyName (Bitstream Vera Sans) def
/FullName (Bitstream Vera Sans) def
/Notice (Copyright (c) 2003 by Bitstream, Inc. All Rights Reserved. Bitstream Vera is a trademark of Bitstream, Inc.) def
/Weight (Roman) def
/Version (Release 1.10) def
/ItalicAngle 0.0 def
/isFixedPitch false def
/UnderlinePosition -213 def
/UnderlineThickness 143 def
end readonly def
/CharStrings 30 dict dup begin
/space{318 0 0 0 0 0 _sc
}_d
/parenleft{390 0 86 -131 310 759 _sc
310 759 _m
266 683 234 609 213 536 _c
191 463 181 389 181 314 _c
181 238 191 164 213 91 _c
234 17 266 -56 310 -131 _c
232 -131 _l
183 -54 146 20 122 94 _c
98 168 86 241 86 314 _c
86 386 98 459 122 533 _c
146 607 182 682 232 759 _c
310 759 _l
_cl}_d
/parenright{390 0 80 -131 304 759 _sc
80 759 _m
158 759 _l
206 682 243 607 267 533 _c
291 459 304 386 304 314 _c
304 241 291 168 267 94 _c
243 20 206 -54 158 -131 _c
80 -131 _l
123 -56 155 17 177 91 _c
198 164 209 238 209 314 _c
209 389 198 463 177 536 _c
155 609 123 683 80 759 _c
_cl}_d
/period{318 0 107 0 210 124 _sc
107 124 _m
210 124 _l
210 0 _l
107 0 _l
107 124 _l
_cl}_d
/zero{636 0 66 -13 570 742 _sc
318 664 _m
267 664 229 639 203 589 _c
177 539 165 464 165 364 _c
165 264 177 189 203 139 _c
229 89 267 64 318 64 _c
369 64 407 89 433 139 _c
458 189 471 264 471 364 _c
471 464 458 539 433 589 _c
407 639 369 664 318 664 _c
318 742 _m
399 742 461 709 505 645 _c
548 580 570 486 570 364 _c
570 241 548 147 505 83 _c
461 19 399 -13 318 -13 _c
236 -13 173 19 130 83 _c
87 147 66 241 66 364 _c
66 486 87 580 130 645 _c
173 709 236 742 318 742 _c
_cl}_d
/one{636 0 110 0 544 729 _sc
124 83 _m
285 83 _l
285 639 _l
110 604 _l
110 694 _l
284 729 _l
383 729 _l
383 83 _l
544 83 _l
544 0 _l
124 0 _l
124 83 _l
_cl}_d
/two{{636 0 73 0 536 742 _sc
192 83 _m
536 83 _l
536 0 _l
73 0 _l
73 83 _l
110 121 161 173 226 239 _c
290 304 331 346 348 365 _c
380 400 402 430 414 455 _c
426 479 433 504 433 528 _c
433 566 419 598 392 622 _c
365 646 330 659 286 659 _c
255 659 222 653 188 643 _c
154 632 117 616 78 594 _c
78 694 _l
118 710 155 722 189 730 _c
223 738 255 742 284 742 _c
}_e{359 742 419 723 464 685 _c
509 647 532 597 532 534 _c
532 504 526 475 515 449 _c
504 422 484 390 454 354 _c
446 344 420 317 376 272 _c
332 227 271 164 192 83 _c
_cl}_e}_d
/three{{636 0 76 -13 556 742 _sc
406 393 _m
453 383 490 362 516 330 _c
542 298 556 258 556 212 _c
556 140 531 84 482 45 _c
432 6 362 -13 271 -13 _c
240 -13 208 -10 176 -4 _c
144 1 110 10 76 22 _c
76 117 _l
103 101 133 89 166 81 _c
198 73 232 69 268 69 _c
330 69 377 81 409 105 _c
441 129 458 165 458 212 _c
458 254 443 288 413 312 _c
383 336 341 349 287 349 _c
}_e{202 349 _l
202 430 _l
291 430 _l
339 430 376 439 402 459 _c
428 478 441 506 441 543 _c
441 580 427 609 401 629 _c
374 649 336 659 287 659 _c
260 659 231 656 200 650 _c
169 644 135 635 98 623 _c
98 711 _l
135 721 170 729 203 734 _c
235 739 266 742 296 742 _c
370 742 429 725 473 691 _c
517 657 539 611 539 553 _c
539 513 527 479 504 451 _c
481 423 448 403 406 393 _c
_cl}_e}_d
/four{636 0 49 0 580 729 _sc
378 643 _m
129 254 _l
378 254 _l
378 643 _l
352 729 _m
476 729 _l
476 254 _l
580 254 _l
580 172 _l
476 172 _l
476 0 _l
378 0 _l
378 172 _l
49 172 _l
49 267 _l
352 729 _l
_cl}_d
/five{{636 0 77 -13 549 729 _sc
108 729 _m
495 729 _l
495 646 _l
198 646 _l
198 467 _l
212 472 227 476 241 478 _c
255 480 270 482 284 482 _c
365 482 429 459 477 415 _c
525 370 549 310 549 234 _c
549 155 524 94 475 51 _c
426 8 357 -13 269 -13 _c
238 -13 207 -10 175 -6 _c
143 -1 111 6 77 17 _c
77 116 _l
106 100 136 88 168 80 _c
199 72 232 69 267 69 _c
}_e{323 69 368 83 401 113 _c
433 143 450 183 450 234 _c
450 284 433 324 401 354 _c
368 384 323 399 267 399 _c
241 399 214 396 188 390 _c
162 384 135 375 108 363 _c
108 729 _l
_cl}_e}_d
/six{{636 0 70 -13 573 742 _sc
330 404 _m
286 404 251 388 225 358 _c
199 328 186 286 186 234 _c
186 181 199 139 225 109 _c
251 79 286 64 330 64 _c
374 64 409 79 435 109 _c
461 139 474 181 474 234 _c
474 286 461 328 435 358 _c
409 388 374 404 330 404 _c
526 713 _m
526 623 _l
501 635 476 644 451 650 _c
425 656 400 659 376 659 _c
310 659 260 637 226 593 _c
}_e{192 549 172 482 168 394 _c
187 422 211 444 240 459 _c
269 474 301 482 336 482 _c
409 482 467 459 509 415 _c
551 371 573 310 573 234 _c
573 159 550 99 506 54 _c
462 9 403 -13 330 -13 _c
246 -13 181 19 137 83 _c
92 147 70 241 70 364 _c
70 479 97 571 152 639 _c
206 707 280 742 372 742 _c
396 742 421 739 447 735 _c
472 730 498 723 526 713 _c
_cl}_e}_d
/seven{636 0 82 0 551 729 _sc
82 729 _m
551 729 _l
551 687 _l
286 0 _l
183 0 _l
432 646 _l
82 646 _l
82 729 _l
_cl}_d
/C{{698 0 56 -13 644 742 _sc
644 673 _m
644 569 _l
610 599 575 622 537 638 _c
499 653 460 661 418 661 _c
334 661 270 635 226 584 _c
182 533 160 460 160 364 _c
160 268 182 194 226 143 _c
270 92 334 67 418 67 _c
460 67 499 74 537 90 _c
575 105 610 128 644 159 _c
644 56 _l
609 32 572 15 534 4 _c
496 -7 455 -13 412 -13 _c
302 -13 215 20 151 87 _c
}_e{87 154 56 246 56 364 _c
56 481 87 573 151 641 _c
215 708 302 742 412 742 _c
456 742 497 736 535 725 _c
573 713 610 696 644 673 _c
_cl}_e}_d
/P{603 0 98 0 569 729 _sc
197 648 _m
197 374 _l
321 374 _l
367 374 402 385 427 409 _c
452 433 465 467 465 511 _c
465 555 452 588 427 612 _c
402 636 367 648 321 648 _c
197 648 _l
98 729 _m
321 729 _l
402 729 464 710 506 673 _c
548 636 569 582 569 511 _c
569 439 548 384 506 348 _c
464 311 402 293 321 293 _c
197 293 _l
197 0 _l
98 0 _l
98 729 _l
_cl}_d
/T{611 0 -2 0 614 729 _sc
-2 729 _m
614 729 _l
614 646 _l
355 646 _l
355 0 _l
256 0 _l
256 646 _l
-2 646 _l
-2 729 _l
_cl}_d
/a{{613 0 60 -13 522 560 _sc
343 275 _m
270 275 220 266 192 250 _c
164 233 150 205 150 165 _c
150 133 160 107 181 89 _c
202 70 231 61 267 61 _c
317 61 357 78 387 114 _c
417 149 432 196 432 255 _c
432 275 _l
343 275 _l
522 312 _m
522 0 _l
432 0 _l
432 83 _l
411 49 385 25 355 10 _c
325 -5 287 -13 243 -13 _c
187 -13 142 2 109 33 _c
76 64 60 106 60 159 _c
}_e{60 220 80 266 122 298 _c
163 329 224 345 306 345 _c
432 345 _l
432 354 _l
432 395 418 427 391 450 _c
364 472 326 484 277 484 _c
245 484 215 480 185 472 _c
155 464 127 453 100 439 _c
100 522 _l
132 534 164 544 195 550 _c
226 556 256 560 286 560 _c
365 560 424 539 463 498 _c
502 457 522 395 522 312 _c
_cl}_e}_d
/c{{550 0 55 -13 488 560 _sc
488 526 _m
488 442 _l
462 456 437 466 411 473 _c
385 480 360 484 334 484 _c
276 484 230 465 198 428 _c
166 391 150 339 150 273 _c
150 206 166 154 198 117 _c
230 80 276 62 334 62 _c
360 62 385 65 411 72 _c
437 79 462 90 488 104 _c
488 21 _l
462 9 436 0 410 -5 _c
383 -10 354 -13 324 -13 _c
242 -13 176 12 128 64 _c
}_e{79 115 55 185 55 273 _c
55 362 79 432 128 483 _c
177 534 244 560 330 560 _c
358 560 385 557 411 551 _c
437 545 463 537 488 526 _c
_cl}_e}_d
/e{{615 0 55 -13 562 560 _sc
562 296 _m
562 252 _l
149 252 _l
153 190 171 142 205 110 _c
238 78 284 62 344 62 _c
378 62 412 66 444 74 _c
476 82 509 95 541 113 _c
541 28 _l
509 14 476 3 442 -3 _c
408 -9 373 -13 339 -13 _c
251 -13 182 12 131 62 _c
80 112 55 181 55 268 _c
55 357 79 428 127 481 _c
175 533 241 560 323 560 _c
397 560 455 536 498 489 _c
}_e{540 441 562 377 562 296 _c
472 322 _m
471 371 457 410 431 440 _c
404 469 368 484 324 484 _c
274 484 234 469 204 441 _c
174 413 156 373 152 322 _c
472 322 _l
_cl}_e}_d
/i{278 0 94 0 184 760 _sc
94 547 _m
184 547 _l
184 0 _l
94 0 _l
94 547 _l
94 760 _m
184 760 _l
184 646 _l
94 646 _l
94 760 _l
_cl}_d
/l{278 0 94 0 184 760 _sc
94 760 _m
184 760 _l
184 0 _l
94 0 _l
94 760 _l
_cl}_d
/m{{974 0 91 0 889 560 _sc
520 442 _m
542 482 569 511 600 531 _c
631 550 668 560 711 560 _c
767 560 811 540 842 500 _c
873 460 889 403 889 330 _c
889 0 _l
799 0 _l
799 327 _l
799 379 789 418 771 444 _c
752 469 724 482 686 482 _c
639 482 602 466 575 435 _c
548 404 535 362 535 309 _c
535 0 _l
445 0 _l
445 327 _l
445 379 435 418 417 444 _c
398 469 369 482 331 482 _c
}_e{285 482 248 466 221 435 _c
194 404 181 362 181 309 _c
181 0 _l
91 0 _l
91 547 _l
181 547 _l
181 462 _l
201 495 226 520 255 536 _c
283 552 317 560 357 560 _c
397 560 430 550 458 530 _c
486 510 506 480 520 442 _c
_cl}_e}_d
/n{634 0 91 0 549 560 _sc
549 330 _m
549 0 _l
459 0 _l
459 327 _l
459 379 448 417 428 443 _c
408 469 378 482 338 482 _c
289 482 251 466 223 435 _c
195 404 181 362 181 309 _c
181 0 _l
91 0 _l
91 547 _l
181 547 _l
181 462 _l
202 494 227 519 257 535 _c
286 551 320 560 358 560 _c
420 560 468 540 500 501 _c
532 462 549 405 549 330 _c
_cl}_d
/o{612 0 55 -13 557 560 _sc
306 484 _m
258 484 220 465 192 427 _c
164 389 150 338 150 273 _c
150 207 163 156 191 118 _c
219 80 257 62 306 62 _c
354 62 392 80 420 118 _c
448 156 462 207 462 273 _c
462 337 448 389 420 427 _c
392 465 354 484 306 484 _c
306 560 _m
384 560 445 534 490 484 _c
534 433 557 363 557 273 _c
557 183 534 113 490 63 _c
445 12 384 -13 306 -13 _c
227 -13 165 12 121 63 _c
77 113 55 183 55 273 _c
55 363 77 433 121 484 _c
165 534 227 560 306 560 _c
_cl}_d
/p{{635 0 91 -207 580 560 _sc
181 82 _m
181 -207 _l
91 -207 _l
91 547 _l
181 547 _l
181 464 _l
199 496 223 520 252 536 _c
281 552 316 560 356 560 _c
422 560 476 533 518 481 _c
559 428 580 359 580 273 _c
580 187 559 117 518 65 _c
476 13 422 -13 356 -13 _c
316 -13 281 -5 252 10 _c
223 25 199 49 181 82 _c
487 273 _m
487 339 473 390 446 428 _c
418 466 381 485 334 485 _c
}_e{286 485 249 466 222 428 _c
194 390 181 339 181 273 _c
181 207 194 155 222 117 _c
249 79 286 61 334 61 _c
381 61 418 79 446 117 _c
473 155 487 207 487 273 _c
_cl}_e}_d
/r{411 0 91 0 411 560 _sc
411 463 _m
401 469 390 473 378 476 _c
366 478 353 480 339 480 _c
288 480 249 463 222 430 _c
194 397 181 350 181 288 _c
181 0 _l
91 0 _l
91 547 _l
181 547 _l
181 462 _l
199 495 224 520 254 536 _c
284 552 321 560 365 560 _c
371 560 378 559 386 559 _c
393 558 401 557 411 555 _c
411 463 _l
_cl}_d
/s{{521 0 54 -13 472 560 _sc
443 531 _m
443 446 _l
417 458 391 468 364 475 _c
336 481 308 485 279 485 _c
234 485 200 478 178 464 _c
156 450 145 430 145 403 _c
145 382 153 366 169 354 _c
185 342 217 330 265 320 _c
296 313 _l
360 299 405 279 432 255 _c
458 230 472 195 472 151 _c
472 100 452 60 412 31 _c
372 1 316 -13 246 -13 _c
216 -13 186 -10 154 -5 _c
}_e{122 0 89 8 54 20 _c
54 113 _l
87 95 120 82 152 74 _c
184 65 216 61 248 61 _c
290 61 323 68 346 82 _c
368 96 380 117 380 144 _c
380 168 371 187 355 200 _c
339 213 303 226 247 238 _c
216 245 _l
160 257 119 275 95 299 _c
70 323 58 356 58 399 _c
58 450 76 490 112 518 _c
148 546 200 560 268 560 _c
301 560 332 557 362 552 _c
391 547 418 540 443 531 _c
}_e{_cl}_e}_d
/t{392 0 27 0 368 702 _sc
183 702 _m
183 547 _l
368 547 _l
368 477 _l
183 477 _l
183 180 _l
183 135 189 106 201 94 _c
213 81 238 75 276 75 _c
368 75 _l
368 0 _l
276 0 _l
206 0 158 13 132 39 _c
106 65 93 112 93 180 _c
93 477 _l
27 477 _l
27 547 _l
93 547 _l
93 702 _l
183 702 _l
_cl}_d
/u{634 0 85 -13 543 547 _sc
85 216 _m
85 547 _l
175 547 _l
175 219 _l
175 167 185 129 205 103 _c
225 77 255 64 296 64 _c
344 64 383 79 411 110 _c
439 141 453 183 453 237 _c
453 547 _l
543 547 _l
543 0 _l
453 0 _l
453 84 _l
431 50 405 26 377 10 _c
348 -5 315 -13 277 -13 _c
214 -13 166 6 134 45 _c
101 83 85 140 85 216 _c
_cl}_d
/v{592 0 30 0 562 547 _sc
30 547 _m
125 547 _l
296 88 _l
467 547 _l
562 547 _l
357 0 _l
235 0 _l
30 547 _l
_cl}_d
/w{818 0 42 0 776 547 _sc
42 547 _m
132 547 _l
244 120 _l
356 547 _l
462 547 _l
574 120 _l
686 547 _l
776 547 _l
633 0 _l
527 0 _l
409 448 _l
291 0 _l
185 0 _l
42 547 _l
_cl}_d
end readonly def

/BuildGlyph
 {exch begin
 CharStrings exch
 2 copy known not{pop /.notdef}if
 true 3 1 roll get exec
 end}_d

/BuildChar {
 1 index /Encoding get exch get
 1 index /BuildGlyph get exec
}_d

FontName currentdict end definefont pop
end
%%EndProlog
mpldict begin
18 180 translate
576 432 0 0 clipbox
100000 setmiterlimit
gsave
0 0 m
576 0 l
576 432 l
0 432 l
cl
1.000 setgray
fill
grestore
gsave
72 43.2 m
518.4 43.2 l
518.4 388.8 l
72 388.8 l
cl
1.000 setgray
fill
grestore
1.000 setlinewidth
1 setlinejoin
2 setlinecap
[] 0 setdash
0.000 0.000 1.000 setrgbcolor
gsave
446.4 345.6 72 43.2 clipbox
72.894589 48.104357 m
79.156713 48.249296 l
84.524248 48.578356 l
89.891784 49.110225 l
95.259319 49.860172 l
100.626854 50.84578 l
105.994389 52.087371 l
110.467335 53.334467 l
114.940281 54.791295 l
119.413226 56.475698 l
123.886172 58.408074 l
128.359118 60.611823 l
132.832064 63.113906 l
136.410421 65.351178 l
139.988778 67.817529 l
143.567134 70.533648 l
147.145491 73.523041 l
150.723848 76.812522 l
154.302204 80.4328 l
157.880561 84.419206 l
161.458918 88.812583 l
206.188377 146.756115 l
219.607214 163.605687 l
232.131463 178.978615 l
243.761122 192.894912 l
254.496192 205.395388 l
264.336673 216.535069 l
274.177154 227.346425 l
284.017635 237.808947 l
292.963527 247.001896 l
301.909419 255.878436 l
310.855311 264.427127 l
318.906613 271.832171 l
326.957916 278.956753 l
335.009218 285.795029 l
343.060521 292.341907 l
351.111824 298.593026 l
359.163126 304.54474 l
367.214429 310.19409 l
374.371142 314.960032 l
381.527856 319.484068 l
388.684569 323.765404 l
395.841283 327.803623 l
402.997996 331.598665 l
410.154709 335.150817 l
417.311423 338.4607 l
424.468136 341.529253 l
431.62485 344.357715 l
438.781563 346.94762 l
445.938277 349.300774 l
453.09499 351.419246 l
460.251703 353.305352 l
467.408417 354.961642 l
474.56513 356.390888 l
481.721844 357.596066 l
488.878557 358.580348 l
496.035271 359.347088 l
503.191984 359.899807 l
510.348697 360.242182 l
517.505411 360.378036 l
517.505411 360.378036 l
stroke
grestore
0.000 0.500 0.000 setrgbcolor
gsave
446.4 345.6 72 43.2 clipbox
72.894589 48.104357 m
79.156713 48.249296 l
84.524248 48.578356 l
89.891784 49.110225 l
95.259319 49.860172 l
100.626854 50.84578 l
105.994389 52.087371 l
110.467335 53.334467 l
114.940281 54.791295 l
119.413226 56.475698 l
123.886172 58.408074 l
128.359118 60.611823 l
132.832064 63.113906 l
136.410421 65.351178 l
139.988778 67.817529 l
143.567134 70.533648 l
147.145491 73.523041 l
150.723848 76.812522 l
154.302204 80.4328 l
157.880561 84.419206 l
161.458918 88.812583 l
206.188377 146.756115 l
219.607214 163.605687 l
232.131463 178.978615 l
243.761122 192.894912 l
254.496192 205.395388 l
264.336673 216.535069 l
274.177154 227.346425 l
284.017635 237.808947 l
292.963527 247.001896 l
301.909419 255.878436 l
310.855311 264.427127 l
318.906613 271.832171 l
326.957916 278.956753 l
335.009218 285.795029 l
343.060521 292.341907 l
351.111824 298.593026 l
359.163126 304.54474 l
367.214429 310.19409 l
374.371142 314.960032 l
381.527856 319.484068 l
388.684569 323.765404 l
395.841283 327.803623 l
402.997996 331.598665 l
410.154709 335.150817 l
417.311423 338.4607 l
424.468136 341.529253 l
431.62485 344.357715 l
438.781563 346.94762 l
445.938277 349.300774 l
453.09499 351.419246 l
460.251703 353.305352 l
467.408417 354.961642 l
474.56513 356.390888 l
481.721844 357.596066 l
488.878557 358.580348 l
496.035271 359.347088 l
503.191984 359.899807 l
510.348697 360.242182 l
517.505411 360.378036 l
517.505411 360.378036 l
stroke
grestore
1.000 0.000 0.000 setrgbcolor
gsave
446.4 345.6 72 43.2 clipbox
72.894589 48.104357 m
79.156713 48.249296 l
84.524248 48.578356 l
89.891784 49.110225 l
95.259319 49.860172 l
100.626854 50.84578 l
105.994389 52.087371 l
110.467335 53.334467 l
114.940281 54.791295 l
119.413226 56.475698 l
123.886172 58.408074 l
128.359118 60.611823 l
132.832064 63.113906 l
136.410421 65.351178 l
139.988778 67.817529 l
143.567134 70.533648 l
147.145491 73.523041 l
150.723848 76.812522 l
154.302204 80.4328 l
157.880561 84.419206 l
161.458918 88.812583 l
206.188377 146.756115 l
219.607214 163.605687 l
232.131463 178.978615 l
243.761122 192.894912 l
254.496192 205.395388 l
264.336673 216.535069 l
274.177154 227.346425 l
284.017635 237.808947 l
292.963527 247.001896 l
301.909419 255.878436 l
310.855311 264.427127 l
318.906613 271.832171 l
326.957916 278.956753 l
335.009218 285.795029 l
343.060521 292.341907 l
351.111824 298.593026 l
359.163126 304.54474 l
367.214429 310.19409 l
374.371142 314.960032 l
381.527856 319.484068 l
388.684569 323.765404 l
395.841283 327.803623 l
402.997996 331.598665 l
410.154709 335.150817 l
417.311423 338.4607 l
424.468136 341.529253 l
431.62485 344.357715 l
438.781563 346.94762 l
445.938277 349.300774 l
453.09499 351.419246 l
460.251703 353.305352 l
467.408417 354.961642 l
474.56513 356.390888 l
481.721844 357.596066 l
488.878557 358.580348 l
496.035271 359.347088 l
503.191984 359.899807 l
510.348697 360.242182 l
517.505411 360.378036 l
517.505411 360.378036 l
stroke
grestore
0.000 0.750 0.750 setrgbcolor
gsave
446.4 345.6 72 43.2 clipbox
72.894589 48.104357 m
79.156713 48.249296 l
84.524248 48.578356 l
89.891784 49.110225 l
95.259319 49.860172 l
100.626854 50.84578 l
105.994389 52.087371 l
110.467335 53.334467 l
114.940281 54.791295 l
119.413226 56.475698 l
123.886172 58.408074 l
128.359118 60.611823 l
132.832064 63.113906 l
136.410421 65.351178 l
139.988778 67.817529 l
143.567134 70.533648 l
147.145491 73.523041 l
150.723848 76.812522 l
154.302204 80.4328 l
157.880561 84.419206 l
161.458918 88.812583 l
206.188377 146.756115 l
219.607214 163.605687 l
232.131463 178.978615 l
243.761122 192.894912 l
254.496192 205.395388 l
264.336673 216.535069 l
274.177154 227.346425 l
284.017635 237.808947 l
292.963527 247.001896 l
301.909419 255.878436 l
310.855311 264.427127 l
318.906613 271.832171 l
326.957916 278.956753 l
335.009218 285.795029 l
343.060521 292.341907 l
351.111824 298.593026 l
359.163126 304.54474 l
367.214429 310.19409 l
374.371142 314.960032 l
381.527856 319.484068 l
388.684569 323.765404 l
395.841283 327.803623 l
402.997996 331.598665 l
410.154709 335.150817 l
417.311423 338.4607 l
424.468136 341.529253 l
431.62485 344.357715 l
438.781563 346.94762 l
445.938277 349.300774 l
453.09499 351.419246 l
460.251703 353.305352 l
467.408417 354.961642 l
474.56513 356.390888 l
481.721844 357.596066 l
488.878557 358.580348 l
496.035271 359.347088 l
503.191984 359.899807 l
510.348697 360.242182 l
517.505411 360.378036 l
517.505411 360.378036 l
stroke
grestore
0.750 0.000 0.750 setrgbcolor
gsave
446.4 345.6 72 43.2 clipbox
72.894589 48.104357 m
79.156713 48.249296 l
84.524248 48.578356 l
89.891784 49.110225 l
95.259319 49.860172 l
100.626854 50.84578 l
105.994389 52.087371 l
110.467335 53.334467 l
114.940281 54.791295 l
119.413226 56.475698 l
123.886172 58.408074 l
128.359118 60.611823 l
132.832064 63.113906 l
136.410421 65.351178 l
139.988778 67.817529 l
143.567134 70.533648 l
147.145491 73.523041 l
150.723848 76.812522 l
154.302204 80.4328 l
157.880561 84.419206 l
161.458918 88.812583 l
206.188377 146.756115 l
219.607214 163.605687 l
232.131463 178.978615 l
243.761122 192.894912 l
254.496192 205.395388 l
264.336673 216.535069 l
274.177154 227.346425 l
284.017635 237.808947 l
292.963527 247.001896 l
301.909419 255.878436 l
310.855311 264.427127 l
318.906613 271.832171 l
326.957916 278.956753 l
335.009218 285.795029 l
343.060521 292.341907 l
351.111824 298.593026 l
359.163126 304.54474 l
367.214429 310.19409 l
374.371142 314.960032 l
381.527856 319.484068 l
388.684569 323.765404 l
395.841283 327.803623 l
402.997996 331.598665 l
410.154709 335.150817 l
417.311423 338.4607 l
424.468136 341.529253 l
431.62485 344.357715 l
438.781563 346.94762 l
445.938277 349.300774 l
453.09499 351.419246 l
460.251703 353.305352 l
467.408417 354.961642 l
474.56513 356.390888 l
481.721844 357.596066 l
488.878557 358.580348 l
496.035271 359.347088 l
503.191984 359.899807 l
510.348697 360.242182 l
517.505411 360.378036 l
517.505411 360.378036 l
stroke
grestore
0.750 0.750 0.000 setrgbcolor
gsave
446.4 345.6 72 43.2 clipbox
72.894589 48.104357 m
79.156713 48.249296 l
84.524248 48.578356 l
89.891784 49.110225 l
95.259319 49.860172 l
100.626854 50.84578 l
105.994389 52.087371 l
110.467335 53.334467 l
114.940281 54.791295 l
119.413226 56.475698 l
123.886172 58.408074 l
128.359118 60.611823 l
132.832064 63.113906 l
136.410421 65.351178 l
139.988778 67.817529 l
143.567134 70.533648 l
147.145491 73.523041 l
150.723848 76.812522 l
154.302204 80.4328 l
157.880561 84.419206 l
161.458918 88.812583 l
206.188377 146.756115 l
219.607214 163.605687 l
232.131463 178.978615 l
243.761122 192.894912 l
254.496192 205.395388 l
264.336673 216.535069 l
274.177154 227.346425 l
284.017635 237.808947 l
292.963527 247.001896 l
301.909419 255.878436 l
310.855311 264.427127 l
318.906613 271.832171 l
326.957916 278.956753 l
335.009218 285.795029 l
343.060521 292.341907 l
351.111824 298.593026 l
359.163126 304.54474 l
367.214429 310.19409 l
374.371142 314.960032 l
381.527856 319.484068 l
388.684569 323.765404 l
395.841283 327.803623 l
402.997996 331.598665 l
410.154709 335.150817 l
417.311423 338.4607 l
424.468136 341.529253 l
431.62485 344.357715 l
438.781563 346.94762 l
445.938277 349.300774 l
453.09499 351.419246 l
460.251703 353.305352 l
467.408417 354.961642 l
474.56513 356.390888 l
481.721844 357.596066 l
488.878557 358.580348 l
496.035271 359.347088 l
503.191984 359.899807 l
510.348697 360.242182 l
517.505411 360.378036 l
517.505411 360.378036 l
stroke
grestore
0 setlinejoin
0.000 setgray
gsave
72 388.8 m
518.4 388.8 l
stroke
grestore
gsave
72 43.2 m
518.4 43.2 l
stroke
grestore
gsave
72 43.2 m
72 388.8 l
stroke
grestore
gsave
518.4 43.2 m
518.4 388.8 l
stroke
grestore
0.500 setlinewidth
1 setlinejoin
0 setlinecap
[1 3] 0 setdash
gsave
446.4 345.6 72 43.2 clipbox
72 43.2 m
72 388.8 l
stroke
grestore
[] 0 setdash
gsave
/o {
gsave
newpath
translate
0.5 setlinewidth
1 setlinejoin
0 setlinecap
0 0 m
0 4 l

gsave
0.000 setgray
fill
grestore
stroke
grestore
} bind def
72 43.2 o
grestore
gsave
/o {
gsave
newpath
translate
0.5 setlinewidth
1 setlinejoin
0 setlinecap
0 0 m
0 -4 l

gsave
0.000 setgray
fill
grestore
stroke
grestore
} bind def
72 388.8 o
grestore
/BitstreamVeraSans-Roman findfont
12.000 scalefont
setfont
gsave
68.179688 30.075000 translate
0.000000 rotate
0.000000 0.000000 m /zero glyphshow
grestore
[1 3] 0 setdash
gsave
446.4 345.6 72 43.2 clipbox
161.28 43.2 m
161.28 388.8 l
stroke
grestore
[] 0 setdash
gsave
/o {
gsave
newpath
translate
0.5 setlinewidth
1 setlinejoin
0 setlinecap
0 0 m
0 4 l

gsave
0.000 setgray
fill
grestore
stroke
grestore
} bind def
161.28 43.2 o
grestore
gsave
/o {
gsave
newpath
translate
0.5 setlinewidth
1 setlinejoin
0 setlinecap
0 0 m
0 -4 l

gsave
0.000 setgray
fill
grestore
stroke
grestore
} bind def
161.28 388.8 o
grestore
gsave
157.459688 30.075000 translate
0.000000 rotate
0.000000 0.000000 m /one glyphshow
grestore
[1 3] 0 setdash
gsave
446.4 345.6 72 43.2 clipbox
250.56 43.2 m
250.56 388.8 l
stroke
grestore
[] 0 setdash
gsave
/o {
gsave
newpath
translate
0.5 setlinewidth
1 setlinejoin
0 setlinecap
0 0 m
0 4 l

gsave
0.000 setgray
fill
grestore
stroke
grestore
} bind def
250.56 43.2 o
grestore
gsave
/o {
gsave
newpath
translate
0.5 setlinewidth
1 setlinejoin
0 setlinecap
0 0 m
0 -4 l

gsave
0.000 setgray
fill
grestore
stroke
grestore
} bind def
250.56 388.8 o
grestore
gsave
246.739688 30.075000 translate
0.000000 rotate
0.000000 0.000000 m /two glyphshow
grestore
[1 3] 0 setdash
gsave
446.4 345.6 72 43.2 clipbox
339.84 43.2 m
339.84 388.8 l
stroke
grestore
[] 0 setdash
gsave
/o {
gsave
newpath
translate
0.5 setlinewidth
1 setlinejoin
0 setlinecap
0 0 m
0 4 l

gsave
0.000 setgray
fill
grestore
stroke
grestore
} bind def
339.84 43.2 o
grestore
gsave
/o {
gsave
newpath
translate
0.5 setlinewidth
1 setlinejoin
0 setlinecap
0 0 m
0 -4 l

gsave
0.000 setgray
fill
grestore
stroke
grestore
} bind def
339.84 388.8 o
grestore
gsave
336.019688 30.075000 translate
0.000000 rotate
0.000000 0.000000 m /three glyphshow
grestore
[1 3] 0 setdash
gsave
446.4 345.6 72 43.2 clipbox
429.12 43.2 m
429.12 388.8 l
stroke
grestore
[] 0 setdash
gsave
/o {
gsave
newpath
translate
0.5 setlinewidth
1 setlinejoin
0 setlinecap
0 0 m
0 4 l

gsave
0.000 setgray
fill
grestore
stroke
grestore
} bind def
429.12 43.2 o
grestore
gsave
/o {
gsave
newpath
translate
0.5 setlinewidth
1 setlinejoin
0 setlinecap
0 0 m
0 -4 l

gsave
0.000 setgray
fill
grestore
stroke
grestore
} bind def
429.12 388.8 o
grestore
gsave
425.299688 30.075000 translate
0.000000 rotate
0.000000 0.000000 m /four glyphshow
grestore
[1 3] 0 setdash
gsave
446.4 345.6 72 43.2 clipbox
518.4 43.2 m
518.4 388.8 l
stroke
grestore
[] 0 setdash
gsave
/o {
gsave
newpath
translate
0.5 setlinewidth
1 setlinejoin
0 setlinecap
0 0 m
0 4 l

gsave
0.000 setgray
fill
grestore
stroke
grestore
} bind def
518.4 43.2 o
grestore
gsave
/o {
gsave
newpath
translate
0.5 setlinewidth
1 setlinejoin
0 setlinecap
0 0 m
0 -4 l

gsave
0.000 setgray
fill
grestore
stroke
grestore
} bind def
518.4 388.8 o
grestore
gsave
514.579687 30.075000 translate
0.000000 rotate
0.000000 0.000000 m /five glyphshow
grestore
gsave
270.614062 13.450000 translate
0.000000 rotate
0.000000 0.000000 m /T glyphshow
7.330078 0.000000 m /i glyphshow
10.664062 0.000000 m /m glyphshow
22.353516 0.000000 m /e glyphshow
29.736328 0.000000 m /space glyphshow
33.550781 0.000000 m /parenleft glyphshow
38.232422 0.000000 m /s glyphshow
44.484375 0.000000 m /parenright glyphshow
grestore
[1 3] 0 setdash
gsave
446.4 345.6 72 43.2 clipbox
72 43.2 m
518.4 43.2 l
stroke
grestore
[] 0 setdash
gsave
/o {
gsave
newpath
translate
0.5 setlinewidth
1 setlinejoin
0 setlinecap
0 0 m
4 0 l

gsave
0.000 setgray
fill
grestore
stroke
grestore
} bind def
72 43.2 o
grestore
gsave
/o {
gsave
newpath
translate
0.5 setlinewidth
1 setlinejoin
0 setlinecap
0 0 m
-4 0 l

gsave
0.000 setgray
fill
grestore
stroke
grestore
} bind def
518.4 43.2 o
grestore
gsave
25.984375 39.887500 translate
0.000000 rotate
0.000000 0.000000 m /zero glyphshow
7.634766 0.000000 m /period glyphshow
11.449219 0.000000 m /zero glyphshow
19.083984 0.000000 m /zero glyphshow
26.718750 0.000000 m /two glyphshow
34.353516 0.000000 m /five glyphshow
grestore
[1 3] 0 setdash
gsave
446.4 345.6 72 43.2 clipbox
72 81.6 m
518.4 81.6 l
stroke
grestore
[] 0 setdash
gsave
/o {
gsave
newpath
translate
0.5 setlinewidth
1 setlinejoin
0 setlinecap
0 0 m
4 0 l

gsave
0.000 setgray
fill
grestore
stroke
grestore
} bind def
72 81.6 o
grestore
gsave
/o {
gsave
newpath
translate
0.5 setlinewidth
1 setlinejoin
0 setlinecap
0 0 m
-4 0 l

gsave
0.000 setgray
fill
grestore
stroke
grestore
} bind def
518.4 81.6 o
grestore
gsave
25.984375 78.287500 translate
0.000000 rotate
0.000000 0.000000 m /zero glyphshow
7.634766 0.000000 m /period glyphshow
11.449219 0.000000 m /zero glyphshow
19.083984 0.000000 m /zero glyphshow
26.718750 0.000000 m /three glyphshow
34.353516 0.000000 m /zero glyphshow
grestore
[1 3] 0 setdash
gsave
446.4 345.6 72 43.2 clipbox
72 120 m
518.4 120 l
stroke
grestore
[] 0 setdash
gsave
/o {
gsave
newpath
translate
0.5 setlinewidth
1 setlinejoin
0 setlinecap
0 0 m
4 0 l

gsave
0.000 setgray
fill
grestore
stroke
grestore
} bind def
72 120 o
grestore
gsave
/o {
gsave
newpath
translate
0.5 setlinewidth
1 setlinejoin
0 setlinecap
0 0 m
-4 0 l

gsave
0.000 setgray
fill
grestore
stroke
grestore
} bind def
518.4 120 o
grestore
gsave
25.984375 116.687500 translate
0.000000 rotate
0.000000 0.000000 m /zero glyphshow
7.634766 0.000000 m /period glyphshow
11.449219 0.000000 m /zero glyphshow
19.083984 0.000000 m /zero glyphshow
26.718750 0.000000 m /three glyphshow
34.353516 0.000000 m /five glyphshow
grestore
[1 3] 0 setdash
gsave
446.4 345.6 72 43.2 clipbox
72 158.4 m
518.4 158.4 l
stroke
grestore
[] 0 setdash
gsave
/o {
gsave
newpath
translate
0.5 setlinewidth
1 setlinejoin
0 setlinecap
0 0 m
4 0 l

gsave
0.000 setgray
fill
grestore
stroke
grestore
} bind def
72 158.4 o
grestore
gsave
/o {
gsave
newpath
translate
0.5 setlinewidth
1 setlinejoin
0 setlinecap
0 0 m
-4 0 l

gsave
0.000 setgray
fill
grestore
stroke
grestore
} bind def
518.4 158.4 o
grestore
gsave
25.984375 155.087500 translate
0.000000 rotate
0.000000 0.000000 m /zero glyphshow
7.634766 0.000000 m /period glyphshow
11.449219 0.000000 m /zero glyphshow
19.083984 0.000000 m /zero glyphshow
26.718750 0.000000 m /four glyphshow
34.353516 0.000000 m /zero glyphshow
grestore
[1 3] 0 setdash
gsave
446.4 345.6 72 43.2 clipbox
72 196.8 m
518.4 196.8 l
stroke
grestore
[] 0 setdash
gsave
/o {
gsave
newpath
translate
0.5 setlinewidth
1 setlinejoin
0 setlinecap
0 0 m
4 0 l

gsave
0.000 setgray
fill
grestore
stroke
grestore
} bind def
72 196.8 o
grestore
gsave
/o {
gsave
newpath
translate
0.5 setlinewidth
1 setlinejoin
0 setlinecap
0 0 m
-4 0 l

gsave
0.000 setgray
fill
grestore
stroke
grestore
} bind def
518.4 196.8 o
grestore
gsave
25.984375 193.487500 translate
0.000000 rotate
0.000000 0.000000 m /zero glyphshow
7.634766 0.000000 m /period glyphshow
11.449219 0.000000 m /zero glyphshow
19.083984 0.000000 m /zero glyphshow
26.718750 0.000000 m /four glyphshow
34.353516 0.000000 m /five glyphshow
grestore
[1 3] 0 setdash
gsave
446.4 345.6 72 43.2 clipbox
72 235.2 m
518.4 235.2 l
stroke
grestore
[] 0 setdash
gsave
/o {
gsave
newpath
translate
0.5 setlinewidth
1 setlinejoin
0 setlinecap
0 0 m
4 0 l

gsave
0.000 setgray
fill
grestore
stroke
grestore
} bind def
72 235.2 o
grestore
gsave
/o {
gsave
newpath
translate
0.5 setlinewidth
1 setlinejoin
0 setlinecap
0 0 m
-4 0 l

gsave
0.000 setgray
fill
grestore
stroke
grestore
} bind def
518.4 235.2 o
grestore
gsave
25.984375 231.887500 translate
0.000000 rotate
0.000000 0.000000 m /zero glyphshow
7.634766 0.000000 m /period glyphshow
11.449219 0.000000 m /zero glyphshow
19.083984 0.000000 m /zero glyphshow
26.718750 0.000000 m /five glyphshow
34.353516 0.000000 m /zero glyphshow
grestore
[1 3] 0 setdash
gsave
446.4 345.6 72 43.2 clipbox
72 273.6 m
518.4 273.6 l
stroke
grestore
[] 0 setdash
gsave
/o {
gsave
newpath
translate
0.5 setlinewidth
1 setlinejoin
0 setlinecap
0 0 m
4 0 l

gsave
0.000 setgray
fill
grestore
stroke
grestore
} bind def
72 273.6 o
grestore
gsave
/o {
gsave
newpath
translate
0.5 setlinewidth
1 setlinejoin
0 setlinecap
0 0 m
-4 0 l

gsave
0.000 setgray
fill
grestore
stroke
grestore
} bind def
518.4 273.6 o
grestore
gsave
25.984375 270.287500 translate
0.000000 rotate
0.000000 0.000000 m /zero glyphshow
7.634766 0.000000 m /period glyphshow
11.449219 0.000000 m /zero glyphshow
19.083984 0.000000 m /zero glyphshow
26.718750 0.000000 m /five glyphshow
34.353516 0.000000 m /five glyphshow
grestore
[1 3] 0 setdash
gsave
446.4 345.6 72 43.2 clipbox
72 312 m
518.4 312 l
stroke
grestore
[] 0 setdash
gsave
/o {
gsave
newpath
translate
0.5 setlinewidth
1 setlinejoin
0 setlinecap
0 0 m
4 0 l

gsave
0.000 setgray
fill
grestore
stroke
grestore
} bind def
72 312 o
grestore
gsave
/o {
gsave
newpath
translate
0.5 setlinewidth
1 setlinejoin
0 setlinecap
0 0 m
-4 0 l

gsave
0.000 setgray
fill
grestore
stroke
grestore
} bind def
518.4 312 o
grestore
gsave
25.984375 308.687500 translate
0.000000 rotate
0.000000 0.000000 m /zero glyphshow
7.634766 0.000000 m /period glyphshow
11.449219 0.000000 m /zero glyphshow
19.083984 0.000000 m /zero glyphshow
26.718750 0.000000 m /six glyphshow
34.353516 0.000000 m /zero glyphshow
grestore
[1 3] 0 setdash
gsave
446.4 345.6 72 43.2 clipbox
72 350.4 m
518.4 350.4 l
stroke
grestore
[] 0 setdash
gsave
/o {
gsave
newpath
translate
0.5 setlinewidth
1 setlinejoin
0 setlinecap
0 0 m
4 0 l

gsave
0.000 setgray
fill
grestore
stroke
grestore
} bind def
72 350.4 o
grestore
gsave
/o {
gsave
newpath
translate
0.5 setlinewidth
1 setlinejoin
0 setlinecap
0 0 m
-4 0 l

gsave
0.000 setgray
fill
grestore
stroke
grestore
} bind def
518.4 350.4 o
grestore
gsave
25.984375 347.087500 translate
0.000000 rotate
0.000000 0.000000 m /zero glyphshow
7.634766 0.000000 m /period glyphshow
11.449219 0.000000 m /zero glyphshow
19.083984 0.000000 m /zero glyphshow
26.718750 0.000000 m /six glyphshow
34.353516 0.000000 m /five glyphshow
grestore
[1 3] 0 setdash
gsave
446.4 345.6 72 43.2 clipbox
72 388.8 m
518.4 388.8 l
stroke
grestore
[] 0 setdash
gsave
/o {
gsave
newpath
translate
0.5 setlinewidth
1 setlinejoin
0 setlinecap
0 0 m
4 0 l

gsave
0.000 setgray
fill
grestore
stroke
grestore
} bind def
72 388.8 o
grestore
gsave
/o {
gsave
newpath
translate
0.5 setlinewidth
1 setlinejoin
0 setlinecap
0 0 m
-4 0 l

gsave
0.000 setgray
fill
grestore
stroke
grestore
} bind def
518.4 388.8 o
grestore
gsave
25.984375 385.487500 translate
0.000000 rotate
0.000000 0.000000 m /zero glyphshow
7.634766 0.000000 m /period glyphshow
11.449219 0.000000 m /zero glyphshow
19.083984 0.000000 m /zero glyphshow
26.718750 0.000000 m /seven glyphshow
34.353516 0.000000 m /zero glyphshow
grestore
gsave
18.484375 85.265625 translate
90.000000 rotate
0.000000 0.000000 m /P glyphshow
7.236328 0.000000 m /r glyphshow
12.169922 0.000000 m /e glyphshow
19.552734 0.000000 m /c glyphshow
26.150391 0.000000 m /u glyphshow
33.755859 0.000000 m /r glyphshow
38.689453 0.000000 m /s glyphshow
44.941406 0.000000 m /o glyphshow
52.283203 0.000000 m /r glyphshow
57.216797 0.000000 m /space glyphshow
61.031250 0.000000 m /C glyphshow
69.410156 0.000000 m /o glyphshow
76.751953 0.000000 m /n glyphshow
84.357422 0.000000 m /c glyphshow
90.955078 0.000000 m /e glyphshow
98.337891 0.000000 m /n glyphshow
105.943359 0.000000 m /t glyphshow
110.648438 0.000000 m /r glyphshow
115.582031 0.000000 m /a glyphshow
122.935547 0.000000 m /t glyphshow
127.640625 0.000000 m /i glyphshow
130.974609 0.000000 m /o glyphshow
138.316406 0.000000 m /n glyphshow
145.921875 0.000000 m /space glyphshow
149.736328 0.000000 m /parenleft glyphshow
154.417969 0.000000 m /r glyphshow
159.351562 0.000000 m /e glyphshow
166.734375 0.000000 m /l glyphshow
170.068359 0.000000 m /a glyphshow
177.421875 0.000000 m /t glyphshow
182.126953 0.000000 m /i glyphshow
185.460938 0.000000 m /v glyphshow
192.562500 0.000000 m /e glyphshow
199.945312 0.000000 m /space glyphshow
203.759766 0.000000 m /t glyphshow
208.464844 0.000000 m /o glyphshow
215.806641 0.000000 m /space glyphshow
219.621094 0.000000 m /p glyphshow
227.238281 0.000000 m /o glyphshow
234.580078 0.000000 m /w glyphshow
244.394531 0.000000 m /e glyphshow
251.777344 0.000000 m /r glyphshow
256.710938 0.000000 m /parenright glyphshow
grestore

end
showpage
